module gitlab.com/sugamaulana/go-responshift

go 1.17

require (
	github.com/gin-gonic/gin v1.10.0
	github.com/go-playground/validator/v10 v10.22.0
	github.com/gofiber/fiber/v2 v2.52.4
	github.com/labstack/echo/v4 v4.12.0
	github.com/lib/pq v1.10.9
	github.com/nicksnyder/go-i18n/v2 v2.4.0
	github.com/stretchr/testify v1.9.0
	go.uber.org/zap v1.27.0
	golang.org/x/text v0.16.0
)

require (
	github.com/andybalholm/brotli v1.0.5 // indirect
	github.com/bytedance/sonic v1.11.6 // indirect
	github.com/bytedance/sonic/loader v0.1.1 // indirect
	github.com/cloudwego/base64x v0.1.4 // indirect
	github.com/cloudwego/iasm v0.2.0 // indirect
	github.com/davecgh/go-spew v1.1.1 // indirect
	github.com/gabriel-vasile/mimetype v1.4.3 // indirect
	github.com/gin-contrib/sse v0.1.0 // indirect
	github.com/go-playground/locales v0.14.1 // indirect
	github.com/go-playground/universal-translator v0.18.1 // indirect
	github.com/goccy/go-json v0.10.2 // indirect
	github.com/google/uuid v1.5.0 // indirect
	github.com/json-iterator/go v1.1.12 // indirect
	github.com/klauspost/compress v1.17.0 // indirect
	github.com/klauspost/cpuid/v2 v2.2.7 // indirect
	github.com/labstack/gommon v0.4.2 // indirect
	github.com/leodido/go-urn v1.4.0 // indirect
	github.com/mattn/go-colorable v0.1.13 // indirect
	github.com/mattn/go-isatty v0.0.20 // indirect
	github.com/mattn/go-runewidth v0.0.15 // indirect
	github.com/modern-go/concurrent v0.0.0-20180306012644-bacd9c7ef1dd // indirect
	github.com/modern-go/reflect2 v1.0.2 // indirect
	github.com/pelletier/go-toml/v2 v2.2.2 // indirect
	github.com/pmezard/go-difflib v1.0.0 // indirect
	github.com/rivo/uniseg v0.2.0 // indirect
	github.com/twitchyliquid64/golang-asm v0.15.1 // indirect
	github.com/ugorji/go/codec v1.2.12 // indirect
	github.com/valyala/bytebufferpool v1.0.0 // indirect
	github.com/valyala/fasthttp v1.51.0 // indirect
	github.com/valyala/fasttemplate v1.2.2 // indirect
	github.com/valyala/tcplisten v1.0.0 // indirect
	go.uber.org/multierr v1.10.0 // indirect
	golang.org/x/arch v0.8.0 // indirect
	golang.org/x/crypto v0.23.0 // indirect
	golang.org/x/net v0.25.0 // indirect
	golang.org/x/sys v0.20.0 // indirect
	google.golang.org/protobuf v1.34.1 // indirect
	gopkg.in/yaml.v3 v3.0.1 // indirect
)
